{"miTabletop":
	[
		{"identificacion":"TN001","nombre":"Catan","year":1995,"publisher":"Kosmos"},
		{"identificacion":"TN002","nombre":"Monopoly","year":1935,"publisher":"Hasbro"},
		{"identificacion":"TN003","nombre":"Magic the Gathering","year":1993,"publisher":"Hasbro"},
		{"identificacion":"TN004","nombre":"Eldritch Horror","year":2013,"publisher":"Fantasy Flight Games"},
		{"identificacion":"TN005","nombre":"Hanabi","year":2010,"publisher":"Asmodee"},
		{"identificacion":"TN006","nombre":"Red Dragon Inn","year":2006,"publisher":"Slugfest Games"},
		{"identificacion":"TN007","nombre":"Patchwork","year":2004,"publisher":"Lookout Games"},
		{"identificacion":"TN008","nombre":"Pictionary","year":1985,"publisher":"Hasbro"}
	]
}